
			88                                                                        
			""                                                                        
			                                                                          
			88 8b,dPPYba,  8b,dPPYba,  8b,dPPYba,  ,adPPYba, 8b,     ,d8 8b       d8  
			88 88P'    "8a 88P'    "8a 88P'   "Y8 a8"     "8a `Y8, ,8P'  `8b     d8'  
			88 88       d8 88       d8 88         8b       d8   )888(     `8b   d8'   
			88 88b,   ,a8" 88b,   ,a8" 88         "8a,   ,a8" ,d8" "8b,    `8b,d8'    
			88 88`YbbdP"'  88`YbbdP"'  88          `"YbbdP"' 8P'     `Y8     Y88'     
			   88          88                                                d8'      
			   88          88                                               d8'         
			   
A DMG Madness Production

(C) DMG - dangrout@googlemail.com 2018

V1.1

                      